{
	"$schema": "http://json-schema.org/draft-07/schema#",
	"type": "object",
	"properties": {
		"page": {
			"type": "number",
			"description": "Página actual (default: 1)"
		},
		"pageSize": {
			"type": "number",
			"description": "Número de elementos por página (default: 10)"
		}
	},
	"additionalProperties": false,
	"title": "Catálogo de direcciones",
	"description": "Catálogo de direcciones"
}
