{
	"$schema": "http://json-schema.org/draft-07/schema#",
	"type": "object",
	"properties": {
		"organizacion_id": {
			"type": "number",
			"description": "id de organización padre"
		},
		"tipo_organizacion_id": {
			"type": "number",
			"description": "id del tipo de organización"
		},
		"correo_electronico": {
			"type": "string",
			"description": "correo electronico"
		},
		"nombre_comercial": {
			"type": "string",
			"maxLength": 100,
			"description": "nombre comercial"
		},
		"comentario": {
			"type": "string",
			"maxLength": 100,
			"description": "comentario"
		},
		"rfc": {
			"type": "string",
			"maxLength": 18,
			"description": "rfc"
		},
		"curp": {
			"type": "string",
			"maxLength": 18,
			"description": "curp"
		},
		"activo": {
			"type": "boolean",
			"default": true,
			"description": "0 inactivo, 1 activo"
		},
		"id": {
			"type": "number",
			"description": "id de la organización"
		}
	},
	"additionalProperties": false,
	"required": ["tipo_organizacion_id", "correo_electronico", "nombre_comercial", "id", "activo"],
	"title": "Actualizar organización",
	"description": "Actualizar organización"
}
