{
	"$schema": "http://json-schema.org/draft-07/schema#",
	"type": "object",
	"properties": {
		"id": {
			"type": "number",
			"description": "id de la organización"
		}
	},
	"required": ["id"],
	"title": "Detalles de la organización",
	"description": "Detalles de la organización"
}
