{
	"$schema": "http://json-schema.org/draft-07/schema#",
	"type": "object",
	"properties": {
		"id": {
			"type": "number",
			"description": "id del servicio a eliminar"
		}
	},
	"required": ["id"],
	"title": "Eliminar un servicio",
	"description": "Eliminar un servicio"
}
